%!PS-Adobe-3.0 EPSF-3.0
%%Creator: MATLAB, The MathWorks, Inc. Version 8.3.0.532 (R2014a). Operating System: Microsoft Windows 10 Home.
%%Title: C:\Users\Ji\Desktop\Research\Limber integral Weak Lensing\Codes\reproduce Mandelbaum\untitled.eps
%%CreationDate: 08/18/2016  15:48:12
%%DocumentNeededFonts: Helvetica
%%DocumentProcessColors: Cyan Magenta Yellow Black
%%LanguageLevel: 2
%%Pages: 1
%%BoundingBox:    96   238   515   553
%%EndComments

%%BeginProlog
% MathWorks dictionary
/MathWorks 160 dict begin
% definition operators
/bdef {bind def} bind def
/ldef {load def} bind def
/xdef {exch def} bdef
/xstore {exch store} bdef
% operator abbreviations
/c  /clip ldef
/cc /concat ldef
/cp /closepath ldef
/gr /grestore ldef
/gs /gsave ldef
/mt /moveto ldef
/np /newpath ldef
/cm /currentmatrix ldef
/sm /setmatrix ldef
/rm /rmoveto ldef
/rl /rlineto ldef
/s {show newpath} bdef
/sc {setcmykcolor} bdef
/sr /setrgbcolor ldef
/sg /setgray ldef
/w /setlinewidth ldef
/j /setlinejoin ldef
/cap /setlinecap ldef
/rc {rectclip} bdef
/rf {rectfill} bdef
% page state control
/pgsv () def
/bpage {/pgsv save def} bdef
/epage {pgsv restore} bdef
/bplot /gsave ldef
/eplot {stroke grestore} bdef
% orientation switch
/portraitMode 0 def /landscapeMode 1 def /rotateMode 2 def
% coordinate system mappings
/dpi2point 0 def
% font control
/FontSize 0 def
/FMS {/FontSize xstore findfont [FontSize 0 0 FontSize neg 0 0]
  makefont setfont} bdef
/ISOLatin1Encoding where {pop /WindowsLatin1Encoding 256 array bdef
ISOLatin1Encoding WindowsLatin1Encoding copy pop
/.notdef/.notdef/quotesinglbase/florin/quotedblbase/ellipsis/dagger
/daggerdbl/circumflex/perthousand/Scaron/guilsinglleft/OE/.notdef/.notdef
/.notdef/.notdef/quoteleft/quoteright/quotedblleft/quotedblright/bullet
/endash/emdash/tilde/trademark/scaron/guilsinglright/oe/.notdef/.notdef
/Ydieresis WindowsLatin1Encoding 128 32 getinterval astore pop}
{/WindowsLatin1Encoding StandardEncoding bdef} ifelse
/reencode {exch dup where {pop load} {pop StandardEncoding} ifelse
  exch dup 3 1 roll findfont dup length dict begin
  { 1 index /FID ne {def}{pop pop} ifelse } forall
  /Encoding exch def currentdict end definefont pop} bdef
/isroman {findfont /CharStrings get /Agrave known} bdef
/FMSR {3 1 roll 1 index dup isroman {reencode} {pop pop} ifelse
  exch FMS} bdef
/csm {1 dpi2point div -1 dpi2point div scale neg translate
 dup landscapeMode eq {pop -90 rotate}
  {rotateMode eq {90 rotate} if} ifelse} bdef
% line types: solid, dotted, dashed, dotdash
/SO { [] 0 setdash } bdef
/DO { [.5 dpi2point mul 4 dpi2point mul] 0 setdash } bdef
/DA { [6 dpi2point mul] 0 setdash } bdef
/DD { [.5 dpi2point mul 4 dpi2point mul 6 dpi2point mul 4
  dpi2point mul] 0 setdash } bdef
% macros for lines and objects
/L {lineto stroke} bdef
/MP {3 1 roll moveto 1 sub {rlineto} repeat} bdef
/AP {{rlineto} repeat} bdef
/PDlw -1 def
/W {/PDlw currentlinewidth def setlinewidth} def
/PP {closepath eofill} bdef
/DP {closepath stroke} bdef
/MR {4 -2 roll moveto dup  0 exch rlineto exch 0 rlineto
  neg 0 exch rlineto closepath} bdef
/FR {MR stroke} bdef
/PR {MR fill} bdef
/L1i {{currentfile picstr readhexstring pop} image} bdef
/tMatrix matrix def
/MakeOval {newpath tMatrix currentmatrix pop translate scale
0 0 1 0 360 arc tMatrix setmatrix} bdef
/FO {MakeOval stroke} bdef
/PO {MakeOval fill} bdef
/PD {currentlinewidth 2 div 0 360 arc fill
   PDlw -1 eq not {PDlw w /PDlw -1 def} if} def
/FA {newpath tMatrix currentmatrix pop translate scale
  0 0 1 5 -2 roll arc tMatrix setmatrix stroke} bdef
/PA {newpath tMatrix currentmatrix pop	translate 0 0 moveto scale
  0 0 1 5 -2 roll arc closepath tMatrix setmatrix fill} bdef
/FAn {newpath tMatrix currentmatrix pop translate scale
  0 0 1 5 -2 roll arcn tMatrix setmatrix stroke} bdef
/PAn {newpath tMatrix currentmatrix pop translate 0 0 moveto scale
  0 0 1 5 -2 roll arcn closepath tMatrix setmatrix fill} bdef
/vradius 0 def /hradius 0 def /lry 0 def
/lrx 0 def /uly 0 def /ulx 0 def /rad 0 def
/MRR {/vradius xdef /hradius xdef /lry xdef /lrx xdef /uly xdef
  /ulx xdef newpath tMatrix currentmatrix pop ulx hradius add uly
  vradius add translate hradius vradius scale 0 0 1 180 270 arc 
  tMatrix setmatrix lrx hradius sub uly vradius add translate
  hradius vradius scale 0 0 1 270 360 arc tMatrix setmatrix
  lrx hradius sub lry vradius sub translate hradius vradius scale
  0 0 1 0 90 arc tMatrix setmatrix ulx hradius add lry vradius sub
  translate hradius vradius scale 0 0 1 90 180 arc tMatrix setmatrix
  closepath} bdef
/FRR {MRR stroke } bdef
/PRR {MRR fill } bdef
/MlrRR {/lry xdef /lrx xdef /uly xdef /ulx xdef /rad lry uly sub 2 div def
  newpath tMatrix currentmatrix pop ulx rad add uly rad add translate
  rad rad scale 0 0 1 90 270 arc tMatrix setmatrix lrx rad sub lry rad
  sub translate rad rad scale 0 0 1 270 90 arc tMatrix setmatrix
  closepath} bdef
/FlrRR {MlrRR stroke } bdef
/PlrRR {MlrRR fill } bdef
/MtbRR {/lry xdef /lrx xdef /uly xdef /ulx xdef /rad lrx ulx sub 2 div def
  newpath tMatrix currentmatrix pop ulx rad add uly rad add translate
  rad rad scale 0 0 1 180 360 arc tMatrix setmatrix lrx rad sub lry rad
  sub translate rad rad scale 0 0 1 0 180 arc tMatrix setmatrix
  closepath} bdef
/FtbRR {MtbRR stroke } bdef
/PtbRR {MtbRR fill } bdef
/stri 6 array def /dtri 6 array def
/smat 6 array def /dmat 6 array def
/tmat1 6 array def /tmat2 6 array def /dif 3 array def
/asub {/ind2 exch def /ind1 exch def dup dup
  ind1 get exch ind2 get sub exch } bdef
/tri_to_matrix {
  2 0 asub 3 1 asub 4 0 asub 5 1 asub
  dup 0 get exch 1 get 7 -1 roll astore } bdef
/compute_transform {
  dmat dtri tri_to_matrix tmat1 invertmatrix 
  smat stri tri_to_matrix tmat2 concatmatrix } bdef
/ds {stri astore pop} bdef
/dt {dtri astore pop} bdef
/db {2 copy /cols xdef /rows xdef mul dup 3 mul string
  currentfile 
  3 index 0 eq {/ASCIIHexDecode filter}
  {/ASCII85Decode filter 3 index 2 eq {/RunLengthDecode filter} if }
  ifelse exch readstring pop
  dup 0 3 index getinterval /rbmap xdef
  dup 2 index dup getinterval /gbmap xdef
  1 index dup 2 mul exch getinterval /bbmap xdef pop pop}bdef
/it {gs np dtri aload pop moveto lineto lineto cp c
  cols rows 8 compute_transform 
  rbmap gbmap bbmap true 3 colorimage gr}bdef
/il {newpath moveto lineto stroke}bdef
currentdict end def
%%EndProlog

%%BeginSetup
MathWorks begin

0 cap

end
%%EndSetup

%%Page: 1 1
%%BeginPageSetup
%%PageBoundingBox:    96   238   515   553
MathWorks begin
bpage
%%EndPageSetup

%%BeginObject: obj1
bplot

/dpi2point 12 def
portraitMode 1152 6636 csm

    0     0  5039  3780 rc
86 dict begin %Colortable dictionary
/c0 { 0.000000 0.000000 0.000000 sr} bdef
/c1 { 1.000000 1.000000 1.000000 sr} bdef
/c2 { 0.900000 0.000000 0.000000 sr} bdef
/c3 { 0.000000 0.820000 0.000000 sr} bdef
/c4 { 0.000000 0.000000 0.800000 sr} bdef
/c5 { 0.910000 0.820000 0.320000 sr} bdef
/c6 { 1.000000 0.260000 0.820000 sr} bdef
/c7 { 0.000000 0.820000 0.820000 sr} bdef
c0
1 j
1 sg
   0    0 5040 3781 rf
6 w
0 3081 3905 0 0 -3081 655 3364 4 MP
PP
-3905 0 0 3081 3905 0 0 -3081 655 3364 5 MP stroke
4 w
DO
SO
6 w
0 sg
 655  283 mt 4560  283 L
 655 3364 mt 4560 3364 L
4560 3364 mt 4560  283 L
 655 3364 mt  655  283 L
 655 3364 mt 4560 3364 L
 655 3364 mt  655  283 L
 655 3364 mt  655 3344 L
 655  283 mt  655  302 L
 655 3364 mt  655 3324 L
 655  283 mt  655  322 L
%%IncludeResource: font Helvetica
/Helvetica /WindowsLatin1Encoding 120 FMSR

 543 3546 mt 
(10) s
%%IncludeResource: font Helvetica
/Helvetica /WindowsLatin1Encoding 80 FMSR

 676 3472 mt 
(-1) s
1046 3364 mt 1046 3344 L
1046  283 mt 1046  302 L
1276 3364 mt 1276 3344 L
1276  283 mt 1276  302 L
1438 3364 mt 1438 3344 L
1438  283 mt 1438  302 L
1564 3364 mt 1564 3344 L
1564  283 mt 1564  302 L
1667 3364 mt 1667 3344 L
1667  283 mt 1667  302 L
1755 3364 mt 1755 3344 L
1755  283 mt 1755  302 L
1830 3364 mt 1830 3344 L
1830  283 mt 1830  302 L
1897 3364 mt 1897 3344 L
1897  283 mt 1897  302 L
1956 3364 mt 1956 3344 L
1956  283 mt 1956  302 L
1956 3364 mt 1956 3324 L
1956  283 mt 1956  322 L
%%IncludeResource: font Helvetica
/Helvetica /WindowsLatin1Encoding 120 FMSR

1868 3546 mt 
(10) s
%%IncludeResource: font Helvetica
/Helvetica /WindowsLatin1Encoding 80 FMSR

2001 3472 mt 
(0) s
2348 3364 mt 2348 3344 L
2348  283 mt 2348  302 L
2577 3364 mt 2577 3344 L
2577  283 mt 2577  302 L
2740 3364 mt 2740 3344 L
2740  283 mt 2740  302 L
2866 3364 mt 2866 3344 L
2866  283 mt 2866  302 L
2969 3364 mt 2969 3344 L
2969  283 mt 2969  302 L
3056 3364 mt 3056 3344 L
3056  283 mt 3056  302 L
3132 3364 mt 3132 3344 L
3132  283 mt 3132  302 L
3198 3364 mt 3198 3344 L
3198  283 mt 3198  302 L
3258 3364 mt 3258 3344 L
3258  283 mt 3258  302 L
3258 3364 mt 3258 3324 L
3258  283 mt 3258  322 L
%%IncludeResource: font Helvetica
/Helvetica /WindowsLatin1Encoding 120 FMSR

3170 3546 mt 
(10) s
%%IncludeResource: font Helvetica
/Helvetica /WindowsLatin1Encoding 80 FMSR

3303 3472 mt 
(1) s
3650 3364 mt 3650 3344 L
3650  283 mt 3650  302 L
3879 3364 mt 3879 3344 L
3879  283 mt 3879  302 L
4042 3364 mt 4042 3344 L
4042  283 mt 4042  302 L
4168 3364 mt 4168 3344 L
4168  283 mt 4168  302 L
4271 3364 mt 4271 3344 L
4271  283 mt 4271  302 L
4358 3364 mt 4358 3344 L
4358  283 mt 4358  302 L
4433 3364 mt 4433 3344 L
4433  283 mt 4433  302 L
4500 3364 mt 4500 3344 L
4500  283 mt 4500  302 L
4560 3364 mt 4560 3344 L
4560  283 mt 4560  302 L
4560 3364 mt 4560 3324 L
4560  283 mt 4560  322 L
%%IncludeResource: font Helvetica
/Helvetica /WindowsLatin1Encoding 120 FMSR

4472 3546 mt 
(10) s
%%IncludeResource: font Helvetica
/Helvetica /WindowsLatin1Encoding 80 FMSR

4605 3472 mt 
(2) s
 655 3364 mt  694 3364 L
4560 3364 mt 4520 3364 L
%%IncludeResource: font Helvetica
/Helvetica /WindowsLatin1Encoding 120 FMSR

 417 3408 mt 
(-10) s
 655 3055 mt  694 3055 L
4560 3055 mt 4520 3055 L
 484 3099 mt 
(-5) s
 655 2747 mt  694 2747 L
4560 2747 mt 4520 2747 L
 554 2791 mt 
(0) s
 655 2439 mt  694 2439 L
4560 2439 mt 4520 2439 L
 554 2483 mt 
(5) s
 655 2131 mt  694 2131 L
4560 2131 mt 4520 2131 L
 487 2175 mt 
(10) s
 655 1823 mt  694 1823 L
4560 1823 mt 4520 1823 L
 487 1867 mt 
(15) s
 655 1515 mt  694 1515 L
4560 1515 mt 4520 1515 L
 487 1559 mt 
(20) s
 655 1207 mt  694 1207 L
4560 1207 mt 4520 1207 L
 487 1251 mt 
(25) s
 655  899 mt  694  899 L
4560  899 mt 4520  899 L
 487  943 mt 
(30) s
 655  591 mt  694  591 L
4560  591 mt 4520  591 L
 487  635 mt 
(35) s
 655  283 mt  694  283 L
4560  283 mt 4520  283 L
 487  327 mt 
(40) s
 655  283 mt 4560  283 L
 655 3364 mt 4560 3364 L
4560 3364 mt 4560  283 L
 655 3364 mt  655  283 L
gs 655 283 3906 3082 rc
0 716 1575 2071 2 MP stroke
46 0 1552 2071 2 MP stroke
46 0 1552 2787 2 MP stroke
0 716 1875 1424 2 MP stroke
47 0 1851 1424 2 MP stroke
47 0 1851 2140 2 MP stroke
0 301 2174 2601 2 MP stroke
46 0 2151 2601 2 MP stroke
46 0 2151 2902 2 MP stroke
0 262 2474 2376 2 MP stroke
46 0 2451 2376 2 MP stroke
46 0 2451 2638 2 MP stroke
0 192 2773 2579 2 MP stroke
46 0 2750 2579 2 MP stroke
46 0 2750 2771 2 MP stroke
0 132 3073 2588 2 MP stroke
46 0 3050 2588 2 MP stroke
46 0 3050 2720 2 MP stroke
0 115 3372 2484 2 MP stroke
46 0 3349 2484 2 MP stroke
46 0 3349 2599 2 MP stroke
0 100 3672 2594 2 MP stroke
46 0 3649 2594 2 MP stroke
46 0 3649 2694 2 MP stroke
0 96 3971 2567 2 MP stroke
46 0 3948 2567 2 MP stroke
46 0 3948 2663 2 MP stroke
0 72 4271 2647 2 MP stroke
46 0 4248 2647 2 MP stroke
46 0 4248 2719 2 MP stroke
gr

  36   36 1575 2429 FO
  36   36 1875 1782 FO
  36   36 2174 2752 FO
  36   36 2474 2507 FO
  36   36 2773 2675 FO
  36   36 3073 2654 FO
  36   36 3372 2541 FO
  36   36 3672 2644 FO
  36   36 3971 2615 FO
  36   36 4271 2683 FO
gs 655 283 3906 3082 rc
/c8 { 1.000000 0.000000 0.000000 sr} bdef
c8
0 1120 1643 2018 2 MP stroke
48 0 1619 2018 2 MP stroke
48 0 1619 3138 2 MP stroke
0 1134 1943 565 2 MP stroke
48 0 1919 565 2 MP stroke
48 0 1919 1699 2 MP stroke
0 605 2249 2109 2 MP stroke
47 0 2226 2109 2 MP stroke
47 0 2226 2714 2 MP stroke
0 482 2550 2298 2 MP stroke
48 0 2526 2298 2 MP stroke
48 0 2526 2780 2 MP stroke
0 350 2855 2467 2 MP stroke
48 0 2831 2467 2 MP stroke
48 0 2831 2817 2 MP stroke
0 249 3154 2372 2 MP stroke
48 0 3130 2372 2 MP stroke
48 0 3130 2621 2 MP stroke
0 193 3452 2150 2 MP stroke
47 0 3428 2150 2 MP stroke
47 0 3428 2343 2 MP stroke
0 153 3750 2466 2 MP stroke
48 0 3726 2466 2 MP stroke
48 0 3726 2619 2 MP stroke
0 121 4049 2456 2 MP stroke
47 0 4026 2456 2 MP stroke
47 0 4026 2577 2 MP stroke
0 100 4349 2554 2 MP stroke
47 0 4326 2554 2 MP stroke
47 0 4326 2654 2 MP stroke
gr

c8
  36   36 1643 2578 FO
  36   36 1943 1132 FO
  36   36 2249 2411 FO
  36   36 2550 2539 FO
  36   36 2855 2642 FO
  36   36 3154 2496 FO
  36   36 3452 2246 FO
  36   36 3750 2542 FO
  36   36 4049 2517 FO
  36   36 4349 2604 FO
gs 655 283 3906 3082 rc
/c9 { 0.000000 1.000000 0.000000 sr} bdef
c9
0 559 1697 2383 2 MP stroke
49 0 1672 2383 2 MP stroke
49 0 1672 2942 2 MP stroke
0 567 1997 1656 2 MP stroke
49 0 1972 1656 2 MP stroke
49 0 1972 2223 2 MP stroke
0 303 2303 2428 2 MP stroke
49 0 2279 2428 2 MP stroke
49 0 2279 2731 2 MP stroke
0 241 2604 2523 2 MP stroke
49 0 2579 2523 2 MP stroke
49 0 2579 2764 2 MP stroke
0 175 2909 2607 2 MP stroke
49 0 2885 2607 2 MP stroke
49 0 2885 2782 2 MP stroke
0 125 3208 2559 2 MP stroke
49 0 3183 2559 2 MP stroke
49 0 3183 2684 2 MP stroke
0 97 3505 2448 2 MP stroke
49 0 3481 2448 2 MP stroke
49 0 3481 2545 2 MP stroke
0 76 3804 2607 2 MP stroke
48 0 3780 2607 2 MP stroke
48 0 3780 2683 2 MP stroke
0 60 4103 2602 2 MP stroke
49 0 4079 2602 2 MP stroke
49 0 4079 2662 2 MP stroke
0 49 4403 2651 2 MP stroke
49 0 4379 2651 2 MP stroke
49 0 4379 2700 2 MP stroke
gr

c9
  36   36 1697 2663 FO
  36   36 1997 1940 FO
  36   36 2303 2579 FO
  36   36 2604 2643 FO
  36   36 2909 2695 FO
  36   36 3208 2622 FO
  36   36 3505 2497 FO
  36   36 3804 2645 FO
  36   36 4103 2632 FO
  36   36 4403 2676 FO
gs 655 283 3906 3082 rc
/c10 { 0.000000 0.000000 1.000000 sr} bdef
c10
3905 0 655 2747 2 MP stroke
gr

c10
0 sg
 638 3407 mt 
( ) s
4544  325 mt 
( ) s
1 sg
0 480 1199 0 0 -480 3301 823 4 MP
PP
-1199 0 0 480 1199 0 0 -480 3301 823 5 MP stroke
4 w
DO
SO
6 w
0 sg
3301  343 mt 4500  343 L
3301  823 mt 4500  823 L
4500  823 mt 4500  343 L
3301  823 mt 3301  343 L
3301  823 mt 4500  823 L
3301  823 mt 3301  343 L
3301  343 mt 4500  343 L
3301  823 mt 4500  823 L
4500  823 mt 4500  343 L
3301  823 mt 3301  343 L
3770  478 mt 
(correlation.m) s
gs 3301 343 1200 481 rc
gs 3480 362 147 147 rc
  36   36 3553  435 FO
gr

gr

3770  626 mt 
(pycorr.py) s
gs 3301 343 1200 481 rc
gs 3480 510 147 147 rc
c8
  36   36 3553  583 FO
gr

c8
gr

c8
0 sg
3770  774 mt 
(pycorr.py /2) s
gs 3301 343 1200 481 rc
gs 3480 657 147 147 rc
c9
  36   36 3553  730 FO
gr

c9
gr

c9

end %%Color Dict

eplot
%%EndObject

epage
end

showpage

%%Trailer
%%EOF
